[
    {
        "id": 1,
        "name": "Deschutes Brewery",
        "logoUrl": "https://beersboss.com/assets/logos/Deschutes_Brewery.jpg",
        "wikiUrl": "https://en.wikipedia.org/wiki/Deschutes_Brewery",
        "officialUrl": "https://www.deschutesbrewery.com/"
    },
    {
        "id": 2,
        "name": "Burgkopf",
        "owners": [
            1006
        ],
        "logoUrl": "https://beersboss.com/assets/logos/Burgkopf.png",
        "officialUrl": "https://burgkopf.com/"
    },
    {
        "id": 3,
        "name": "Sierra Nevada Brewing Company",
        "logoUrl": "https://beersboss.com/assets/logos/Sierra_Nevada_Brewing_Company.png",
        "wikiUrl": "https://en.wikipedia.org/wiki/Sierra_Nevada_Brewing_Company",
        "officialUrl": "https://sierranevada.com/"
    },
    {
        "id": 4,
        "name": "Red Stripe",
        "owners": [
            1001
        ],
        "logoUrl": "https://beersboss.com/assets/logos/Red_Stripe.png",
        "wikiUrl": "https://en.wikipedia.org/wiki/Red_Stripe",
        "officialUrl": "https://redstripebeer.com/"
    },
    {
        "id": 5,
        "name": "D.G. Yuengling & Son",
        "logoUrl": "https://beersboss.com/assets/logos/D.G._Yuengling_%26_Son.png",
        "wikiUrl": "https://en.wikipedia.org/wiki/Yuengling",
        "officialUrl": "https://www.yuengling.com/"
    },
    {
        "id": 6,
        "name": "Heineken",
        "owners": [
            1001
        ],
        "logoUrl": "https://beersboss.com/assets/logos/Heineken.png",
        "wikiUrl": "https://en.wikipedia.org/wiki/Heineken",
        "officialUrl": "https://www.heineken.com/"
    },
    {
        "id": 7,
        "name": "Leffe",
        "owners": [
            1000
        ],
        "logoUrl": "https://beersboss.com/assets/logos/Leffe.png",
        "wikiUrl": "https://en.wikipedia.org/wiki/Leffe",
        "officialUrl": "https://leffe.com/"
    },
    {
        "id": 8,
        "name": "Patagonia",
        "owners": [
            1000
        ],
        "logoUrl": "https://beersboss.com/assets/logos/Patagonia.png",
        "wikiUrl": "https://es.wikipedia.org/wiki/Cerveza_Patagonia",
        "officialUrl": "https://www.cervezapatagonia.com/"
    },
    {
        "id": 9,
        "name": "Stella Artois",
        "owners": [
            1000
        ],
        "logoUrl": "https://beersboss.com/assets/logos/Stella_Artois.png",
        "wikiUrl": "https://en.wikipedia.org/wiki/Stella_Artois",
        "officialUrl": "https://www.stellaartois.com/"
    },
    {
        "id": 10,
        "name": "Omission Brewing",
        "owners": [
            1000
        ],
        "logoUrl": "https://beersboss.com/assets/logos/Omission_Brewing.png",
        "wikiUrl": "https://en.wikipedia.org/wiki/Craft_Brew_Alliance",
        "officialUrl": "https://www.drinkomission.com/"
    },
    {
        "id": 11,
        "name": "10 Barrel Brewing",
        "owners": [
            1000
        ],
        "logoUrl": "https://beersboss.com/assets/logos/10_Barrel_Brewing.png",
        "wikiUrl": "https://en.wikipedia.org/wiki/Anheuser-Busch_brands#10_Barrel",
        "officialUrl": "https://10barrel.com/"
    },
    {
        "id": 12,
        "name": "Appalachian Mountain Brewery",
        "owners": [
            1000
        ],
        "logoUrl": "https://beersboss.com/assets/logos/Appalachian_Mountain_Brewery.png",
        "wikiUrl": "https://en.wikipedia.org/wiki/Craft_Brew_Alliance",
        "officialUrl": "http://appalachianmountainbrewery.com/"
    },
    {
        "id": 13,
        "name": "Blue Moon",
        "owners": [
            1002
        ],
        "logoUrl": "https://beersboss.com/assets/logos/Blue_Moon.jpg",
        "wikiUrl": "https://en.wikipedia.org/wiki/Blue_Moon_(beer)",
        "officialUrl": "https://www.bluemoonbrewingcompany.com/"
    },
    {
        "id": 14,
        "name": "Miller Brewing Company",
        "owners": [
            1002
        ],
        "logoUrl": "https://beersboss.com/assets/logos/Miller_Brewing_Company.png",
        "wikiUrl": "https://en.wikipedia.org/wiki/Miller_Brewing_Company",
        "officialUrl": "https://www.millerhighlife.com/"
    },
    {
        "id": 15,
        "name": "Coors Brewing Company",
        "owners": [
            1002
        ],
        "logoUrl": "https://beersboss.com/assets/logos/Coors_Brewing_Company.png",
        "wikiUrl": "https://en.wikipedia.org/wiki/Coors_Brewing_Company",
        "officialUrl": "https://www.coors.com/"
    },
    {
        "id": 16,
        "name": "Labatt Brewing Company",
        "owners": [
            1000
        ],
        "logoUrl": "https://beersboss.com/assets/logos/Labatt_Brewing_Company.png",
        "wikiUrl": "https://en.wikipedia.org/wiki/Labatt_Brewing_Company",
        "officialUrl": "https://www.labatt.com/"
    },
    {
        "id": 17,
        "name": "Pilsner Urquell",
        "owners": [
            1002,
            1003
        ],
        "logoUrl": "https://beersboss.com/assets/logos/Pilsner_Urquell.png",
        "wikiUrl": "https://en.wikipedia.org/wiki/Pilsner_Urquell",
        "officialUrl": "https://www.pilsnerurquell.com/"
    },
    {
        "id": 18,
        "name": "Paulaner Brewery",
        "logoUrl": "https://beersboss.com/assets/logos/Paulaner_Brewery.png",
        "wikiUrl": "https://en.wikipedia.org/wiki/Paulaner_Brewery",
        "officialUrl": "https://www.paulaner.com/"
    },
    {
        "id": 19,
        "name": "Blue Point Brewing Company",
        "owners": [
            1000
        ],
        "logoUrl": "https://beersboss.com/assets/logos/Blue_Point_Brewing_Company.png",
        "wikiUrl": "https://en.wikipedia.org/wiki/Blue_Point_Brewing_Company",
        "officialUrl": "https://www.bluepointbrewing.com/"
    },
    {
        "id": 20,
        "name": "Breckenridge Brewery",
        "owners": [
            1000
        ],
        "logoUrl": "https://beersboss.com/assets/logos/Breckenridge_Brewery.png",
        "wikiUrl": "https://en.wikipedia.org/wiki/Breckenridge_Brewery",
        "officialUrl": "https://www.breckbrew.com/"
    },
    {
        "id": 21,
        "name": "Cisco Brewing",
        "owners": [
            1000
        ],
        "logoUrl": "https://beersboss.com/assets/logos/Cisco_Brewing.png",
        "wikiUrl": "https://en.wikipedia.org/wiki/Cisco_Brewers",
        "officialUrl": "https://www.ciscobrewers.com/"
    },
    {
        "id": 22,
        "name": "Devils Backbone Brewing Company",
        "owners": [
            1000
        ],
        "logoUrl": "https://beersboss.com/assets/logos/Devils_Backbone_Brewing_Company.jpg",
        "wikiUrl": "https://en.wikipedia.org/wiki/Devils_Backbone_Brewing_Company",
        "officialUrl": "https://www.dbbrewingcompany.com/"
    },
    {
        "id": 23,
        "name": "Elysian Brewing Company",
        "owners": [
            1000
        ],
        "logoUrl": "https://beersboss.com/assets/logos/Elysian_Brewing_Company.png",
        "wikiUrl": "https://en.wikipedia.org/wiki/Elysian_Brewing_Company",
        "officialUrl": "https://www.elysianbrewing.com/"
    },
    {
        "id": 24,
        "name": "Four Peaks Brewing Company",
        "owners": [
            1000
        ],
        "logoUrl": "https://beersboss.com/assets/logos/Four_Peaks_Brewing_Company.png",
        "wikiUrl": "https://en.wikipedia.org/wiki/Four_Peaks_Brewery",
        "officialUrl": "https://www.fourpeaks.com/"
    },
    {
        "id": 25,
        "name": "Golden Road Brewing",
        "owners": [
            1000
        ],
        "logoUrl": "https://beersboss.com/assets/logos/Golden_Road_Brewing.png",
        "wikiUrl": "https://en.wikipedia.org/wiki/Anheuser-Busch_brands#Golden_Road_Brewing",
        "officialUrl": "https://www.goldenroad.la/"
    },
    {
        "id": 26,
        "name": "Goose Island Beer Company",
        "owners": [
            1000
        ],
        "logoUrl": "https://beersboss.com/assets/logos/Goose_Island_Beer_Company.png",
        "wikiUrl": "https://en.wikipedia.org/wiki/Goose_Island_Brewery",
        "officialUrl": "https://www.gooseisland.com"
    },
    {
        "id": 27,
        "name": "Karbach Brewing Company",
        "owners": [
            1000
        ],
        "logoUrl": "https://beersboss.com/assets/logos/Karbach_Brewing_Company.png",
        "wikiUrl": "https://en.wikipedia.org/wiki/Karbach_Brewing_Company",
        "officialUrl": "https://www.karbachbrewing.com/"
    },
    {
        "id": 28,
        "name": "Kona Brewing Company",
        "owners": [
            1000
        ],
        "logoUrl": "https://beersboss.com/assets/logos/Kona_Brewing_Company.png",
        "wikiUrl": "https://en.wikipedia.org/wiki/Kona_Brewing_Company",
        "officialUrl": "https://konabrewingco.com/"
    },
    {
        "id": 29,
        "name": "Platform Beer Company",
        "owners": [
            1000
        ],
        "logoUrl": "https://beersboss.com/assets/logos/Platform_Beer_Company.png",
        "wikiUrl": "https://en.wikipedia.org/wiki/Platform_Beer_Company",
        "officialUrl": "https://platformbeer.co/"
    },
    {
        "id": 30,
        "name": "Redhook Ale Brewery",
        "owners": [
            1000
        ],
        "logoUrl": "https://beersboss.com/assets/logos/Redhook_Ale_Brewery.png",
        "wikiUrl": "https://en.wikipedia.org/wiki/Redhook_Ale_Brewery",
        "officialUrl": "https://www.redhook.com/"
    },
    {
        "id": 31,
        "name": "Wicked Weed Brewing",
        "owners": [
            1000
        ],
        "logoUrl": "https://beersboss.com/assets/logos/Wicked_Weed_Brewing.png",
        "wikiUrl": "https://en.wikipedia.org/wiki/Anheuser-Busch_brands#Wicked_Weed_Brewing",
        "officialUrl": "https://www.wickedweedbrewing.com/"
    },
    {
        "id": 32,
        "name": "Widmer Brothers Brewing",
        "owners": [
            1000
        ],
        "logoUrl": "https://beersboss.com/assets/logos/Widmer_Brothers_Brewing.png",
        "wikiUrl": "https://en.wikipedia.org/wiki/Widmer_Brothers_Brewery",
        "officialUrl": "https://www.widmerbrothers.com/"
    },
    {
        "id": 33,
        "name": "Wynwood Brewing",
        "owners": [
            1000
        ],
        "logoUrl": "https://beersboss.com/assets/logos/Wynwood_Brewing.png",
        "wikiUrl": "https://en.wikipedia.org/wiki/Craft_Brew_Alliance#Wynwood_Brewing_Co.",
        "officialUrl": "https://wynwoodbrewing.com/"
    },
    {
        "id": 34,
        "name": "Bohemia Beer",
        "owners": [
            1001
        ],
        "logoUrl": "https://beersboss.com/assets/logos/Bohemia_Beer.png",
        "wikiUrl": "https://en.wikipedia.org/wiki/Cuauht%C3%A9moc_Moctezuma_Brewery#Bohemia",
        "officialUrl": "https://www.bohemiabeerusa.com/"
    },
    {
        "id": 35,
        "name": "Dos Equis",
        "owners": [
            1001
        ],
        "logoUrl": "https://beersboss.com/assets/logos/Dos_Equis.png",
        "wikiUrl": "https://en.wikipedia.org/wiki/Cuauht%C3%A9moc_Moctezuma_Brewery#Dos_Equis",
        "officialUrl": "https://dosequis.com/"
    },
    {
        "id": 36,
        "name": "Tecate",
        "owners": [
            1001
        ],
        "logoUrl": "https://beersboss.com/assets/logos/Tecate.png",
        "wikiUrl": "https://en.wikipedia.org/wiki/Cuauht%C3%A9moc_Moctezuma_Brewery#Tecate",
        "officialUrl": "https://tecate.com/"
    },
    {
        "id": 37,
        "name": "Sol",
        "owners": [
            1001,
            1002
        ],
        "logoUrl": "https://beersboss.com/assets/logos/Sol.png",
        "wikiUrl": "https://en.wikipedia.org/wiki/Cuauht%C3%A9moc_Moctezuma_Brewery#Sol",
        "officialUrl": "https://www.sol.com"
    },
    {
        "id": 38,
        "name": "Lagunitas Brewing Company",
        "owners": [
            1001
        ],
        "logoUrl": "https://beersboss.com/assets/logos/Lagunitas_Brewing_Company.png",
        "wikiUrl": "https://en.wikipedia.org/wiki/Lagunitas_Brewing_Company",
        "officialUrl": "https://lagunitas.com/"
    },
    {
        "id": 39,
        "name": "Affligem Brewery",
        "owners": [
            1001
        ],
        "logoUrl": "https://beersboss.com/assets/logos/Affligem_Brewery.png",
        "wikiUrl": "https://en.wikipedia.org/wiki/Heineken_brands#Affligem_Brewery",
        "officialUrl": "https://www.affligembeer.com"
    },
    {
        "id": 40,
        "name": "Carta Blanca",
        "owners": [
            1001
        ],
        "logoUrl": "https://beersboss.com/assets/logos/Carta_Blanca.png",
        "wikiUrl": "https://en.wikipedia.org/wiki/Cuauht%C3%A9moc_Moctezuma_Brewery#Carta_Blanca",
        "officialUrl": "https://www.cartablanca.com.mx"
    },
    {
        "id": 41,
        "name": "Indio",
        "owners": [
            1001
        ],
        "logoUrl": "https://beersboss.com/assets/logos/Indio.png",
        "wikiUrl": "https://en.wikipedia.org/wiki/Cuauht%C3%A9moc_Moctezuma_Brewery#Indio",
        "officialUrl": "https://indio.com.mx"
    },
    {
        "id": 42,
        "name": "Amstel Brewery",
        "owners": [
            1001
        ],
        "logoUrl": "https://beersboss.com/assets/logos/Amstel_Brewery.PNG",
        "wikiUrl": "https://en.wikipedia.org/wiki/Amstel_Brewery",
        "officialUrl": "https://www.amstel.com/"
    },
    {
        "id": 43,
        "name": "Lost Coast Brewery",
        "logoUrl": "https://beersboss.com/assets/logos/Lost_Coast_Brewery.jpeg",
        "wikiUrl": "https://en.wikipedia.org/wiki/Lost_Coast_Brewery",
        "officialUrl": "https://www.lostcoast.com/"
    },
    {
        "id": 44,
        "name": "North Coast Brewing Company",
        "logoUrl": "https://beersboss.com/assets/logos/North_Coast_Brewing_Company.png",
        "wikiUrl": "https://en.wikipedia.org/wiki/North_Coast_Brewing_Company",
        "officialUrl": "https://northcoastbrewing.com/"
    },
    {
        "id": 45,
        "name": "Hoegaarden Brewery",
        "owners": [
            1000
        ],
        "logoUrl": "https://beersboss.com/assets/logos/Hoegaarden_Brewery.png",
        "wikiUrl": "https://en.wikipedia.org/wiki/Hoegaarden_Brewery",
        "officialUrl": "https://hoegaarden.com/"
    },
    {
        "id": 46,
        "name": "Island Brewing Company",
        "logoUrl": "https://beersboss.com/assets/logos/Island_Brewing_Company.png",
        "officialUrl": "http://www.islandbrewingcompany.com/"
    },
    {
        "id": 47,
        "name": "Guinness & Co. Brewery",
        "owners": [
            1005
        ],
        "logoUrl": "https://beersboss.com/assets/logos/Guinness_%26_Co._Brewery.png",
        "wikiUrl": "https://en.wikipedia.org/wiki/Guinness",
        "officialUrl": "https://www.guinness.com/"
    },
    {
        "id": 48,
        "name": "MadeWest Brewing Company",
        "logoUrl": "https://beersboss.com/assets/logos/MadeWest_Brewing_Company.png",
        "officialUrl": "https://madewest.com/"
    },
    {
        "id": 49,
        "name": "Harp Lager",
        "owners": [
            1005
        ],
        "logoUrl": "https://beersboss.com/assets/logos/Harp_Lager.jpg",
        "wikiUrl": "https://en.wikipedia.org/wiki/Harp_Lager",
        "officialUrl": "https://www.diageo.com/en/our-brands/brand-explorer/#harp"
    },
    {
        "id": 50,
        "name": "Grolsch Brewery",
        "owners": [
            1002,
            1003
        ],
        "logoUrl": "https://beersboss.com/assets/logos/Grolsch_Brewery.png",
        "wikiUrl": "https://en.wikipedia.org/wiki/Grolsch_Brewery",
        "officialUrl": "https://en.wikipedia.org/wiki/Grolsch_Brewery"
    },
    {
        "id": 51,
        "name": "Corona",
        "owners": [
            1000,
            1008
        ],
        "logoUrl": "https://beersboss.com/assets/logos/Corona.png",
        "wikiUrl": "https://en.wikipedia.org/wiki/Corona_(beer)",
        "officialUrl": "https://www.coronausa.com/"
    },
    {
        "id": 52,
        "name": "Modelo",
        "owners": [
            1000,
            1008
        ],
        "logoUrl": "https://beersboss.com/assets/logos/Modelo.png",
        "wikiUrl": "https://en.wikipedia.org/wiki/Grupo_Modelo#Negra_Modelo",
        "officialUrl": "https://www.modelousa.com"
    },
    {
        "id": 53,
        "name": "Pacifico",
        "owners": [
            1000,
            1008
        ],
        "logoUrl": "https://beersboss.com/assets/logos/Pacifico.png",
        "wikiUrl": "https://en.wikipedia.org/wiki/Pac%C3%ADfico_(beer)",
        "officialUrl": "https://discoverpacifico.com/"
    },
    {
        "id": 54,
        "name": "Victoria",
        "owners": [
            1000,
            1008
        ],
        "logoUrl": "https://beersboss.com/assets/logos/Victoria.jpeg",
        "wikiUrl": "https://en.wikipedia.org/wiki/Grupo_Modelo",
        "officialUrl": "http://victoriabeer-us.com/"
    },
    {
        "id": 55,
        "name": "Estrella Jalisco",
        "owners": [
            1000,
            1008
        ],
        "logoUrl": "https://beersboss.com/assets/logos/Estrella_Jalisco.png",
        "wikiUrl": "https://en.wikipedia.org/wiki/Grupo_Modelo",
        "officialUrl": "https://www.estrellajalisco.com/"
    },
    {
        "id": 56,
        "name": "Trumer Pils",
        "owners": [
            1007
        ],
        "logoUrl": "https://beersboss.com/assets/logos/Trumer_Pils.png",
        "wikiUrl": "https://en.wikipedia.org/wiki/Trumer_Pils",
        "officialUrl": "https://www.trumer-international.com/"
    },
    {
        "id": 57,
        "name": "Shiner",
        "owners": [
            1007
        ],
        "logoUrl": "https://beersboss.com/assets/logos/Shiner.png",
        "wikiUrl": "https://en.wikipedia.org/wiki/Spoetzl_Brewery",
        "officialUrl": "https://shiner.com/"
    },
    {
        "id": 58,
        "name": "Budweiser",
        "owners": [
            1000
        ],
        "logoUrl": "https://beersboss.com/assets/logos/Budweiser.png",
        "wikiUrl": "https://en.wikipedia.org/wiki/Budweiser",
        "officialUrl": "https://www.budweiser.com/"
    },
    {
        "id": 59,
        "name": "Michelob Ultra",
        "owners": [
            1000
        ],
        "logoUrl": "https://beersboss.com/assets/logos/Michelob_Ultra.png",
        "wikiUrl": "https://en.wikipedia.org/wiki/Anheuser-Busch_brands#Michelob",
        "officialUrl": "https://www.michelobultra.com/"
    },
    {
        "id": 60,
        "name": "Busch",
        "owners": [
            1000
        ],
        "logoUrl": "https://beersboss.com/assets/logos/Busch.png",
        "wikiUrl": "https://en.wikipedia.org/wiki/Anheuser-Busch_brands#Busch",
        "officialUrl": "https://www.busch.com/"
    },
    {
        "id": 61,
        "name": "Natural Light",
        "owners": [
            1000
        ],
        "logoUrl": "https://beersboss.com/assets/logos/Natural_Light.png",
        "wikiUrl": "https://en.wikipedia.org/wiki/Natural_Light",
        "officialUrl": "https://www.naturallight.com/"
    },
    {
        "id": 62,
        "name": "LandShark",
        "owners": [
            1000
        ],
        "logoUrl": "https://beersboss.com/assets/logos/LandShark.png",
        "wikiUrl": "https://en.wikipedia.org/wiki/Anheuser-Busch_brands#LandShark_Lager",
        "officialUrl": "https://www.landsharklager.com/"
    },
    {
        "id": 63,
        "name": "Presidente",
        "owners": [
            1000
        ],
        "logoUrl": "https://beersboss.com/assets/logos/Presidente.png",
        "wikiUrl": "https://en.wikipedia.org/wiki/Presidente_(beer)",
        "officialUrl": "https://www.presidentebeer.com/"
    },
    {
        "id": 64,
        "name": "Shock Top",
        "owners": [
            1000
        ],
        "logoUrl": "https://beersboss.com/assets/logos/Shock_Top.png",
        "wikiUrl": "https://en.wikipedia.org/wiki/Anheuser-Busch_brands#Shock_Top",
        "officialUrl": "https://www.shocktopbeer.com/"
    },
    {
        "id": 65,
        "name": "Genesee Brewing Company",
        "owners": [
            1004
        ],
        "logoUrl": "https://beersboss.com/assets/logos/Genesee_Brewing_Company.png",
        "wikiUrl": "https://en.wikipedia.org/wiki/Genesee_Brewing_Company",
        "officialUrl": "https://www.geneseebeer.com/"
    },
    {
        "id": 66,
        "name": "Magic Hat Brewing Company",
        "owners": [
            1004
        ],
        "logoUrl": "https://beersboss.com/assets/logos/Magic_Hat_Brewing_Company.jpg",
        "wikiUrl": "https://en.wikipedia.org/wiki/Magic_Hat_Brewing_Company",
        "officialUrl": "https://www.magichat.net/"
    },
    {
        "id": 67,
        "name": "Pyramid Breweries",
        "owners": [
            1004
        ],
        "logoUrl": "https://beersboss.com/assets/logos/Pyramid_Breweries.png",
        "wikiUrl": "https://en.wikipedia.org/wiki/Pyramid_Breweries",
        "officialUrl": "https://www.pyramidbrew.com/"
    },
    {
        "id": 68,
        "name": "Imperial",
        "owners": [
            1004
        ],
        "logoUrl": "https://beersboss.com/assets/logos/Imperial.png",
        "wikiUrl": "https://en.wikipedia.org/wiki/Imperial_(beer)",
        "officialUrl": "https://www.imperialbeer.com/"
    },
    {
        "id": 69,
        "name": "Four Corners",
        "owners": [
            1008
        ],
        "logoUrl": "https://beersboss.com/assets/logos/Four_Corners.png",
        "officialUrl": "https://fcbrewing.com/"
    },
    {
        "id": 70,
        "name": "Funky Buddha",
        "owners": [
            1008
        ],
        "logoUrl": "https://beersboss.com/assets/logos/Funky_Buddha.png",
        "wikiUrl": "https://en.wikipedia.org/wiki/Funky_Buddha_Brewery",
        "officialUrl": "https://funkybuddhabrewery.com/"
    },
    {
        "id": 71,
        "name": "Pabst Blue Ribbon",
        "owners": [
            1009
        ],
        "logoUrl": "https://beersboss.com/assets/logos/Pabst_Blue_Ribbon.png",
        "wikiUrl": "https://en.wikipedia.org/wiki/Pabst_Brewing_Company",
        "officialUrl": "https://pabst.com/"
    },
    {
        "id": 72,
        "name": "Olympia",
        "owners": [
            1009
        ],
        "logoUrl": "https://beersboss.com/assets/logos/Olympia.png",
        "wikiUrl": "https://en.wikipedia.org/wiki/Olympia_Brewing_Company",
        "officialUrl": "https://theoriginalolympia.com/"
    },
    {
        "id": 73,
        "name": "Lone Star",
        "owners": [
            1009
        ],
        "logoUrl": "https://beersboss.com/assets/logos/Lone_Star.png",
        "wikiUrl": "https://en.wikipedia.org/wiki/Lone_Star_Brewing_Company",
        "officialUrl": "https://lonestarbeer.com/"
    },
    {
        "id": 74,
        "name": "Rainier",
        "owners": [
            1009
        ],
        "logoUrl": "https://beersboss.com/assets/logos/Rainier.png",
        "wikiUrl": "https://en.wikipedia.org/wiki/Rainier_Brewing_Company",
        "officialUrl": "https://rainierbeer.com/"
    },
    {
        "id": 75,
        "name": "National Bohemian",
        "owners": [
            1009
        ],
        "logoUrl": "https://beersboss.com/assets/logos/National_Bohemian.png",
        "wikiUrl": "https://en.wikipedia.org/wiki/National_Bohemian",
        "officialUrl": "https://nationalbohemian.com/"
    },
    {
        "id": 76,
        "name": "Heileman's",
        "owners": [
            1009
        ],
        "logoUrl": "https://beersboss.com/assets/logos/Heileman%27s.png",
        "wikiUrl": "https://en.wikipedia.org/wiki/G._Heileman_Brewing_Company",
        "officialUrl": "https://oldstylebeer.com/"
    },
    {
        "id": 77,
        "name": "Stag",
        "owners": [
            1009
        ],
        "logoUrl": "https://beersboss.com/assets/logos/Stag.png",
        "officialUrl": "https://www.stag-beer.com/"
    },
    {
        "id": 78,
        "name": "Stroh's",
        "owners": [
            1009
        ],
        "logoUrl": "https://beersboss.com/assets/logos/Stroh%27s.png",
        "wikiUrl": "https://en.wikipedia.org/wiki/Stroh_Brewery_Company",
        "officialUrl": "https://strohs-beer.com/"
    },
    {
        "id": 79,
        "name": "Asahi",
        "owners": [
            1003
        ],
        "logoUrl": "https://beersboss.com/assets/logos/Asahi.png",
        "wikiUrl": "https://en.wikipedia.org/wiki/Asahi_Breweries",
        "officialUrl": "https://www.asahisuperdry.com"
    },
    {
        "id": 80,
        "name": "Peroni",
        "owners": [
            1003
        ],
        "logoUrl": "https://beersboss.com/assets/logos/Peroni.png",
        "wikiUrl": "https://en.wikipedia.org/wiki/Peroni_Brewery",
        "officialUrl": "http://www.peroniitaly.com/"
    },
    {
        "id": 81,
        "name": "Fosters",
        "owners": [
            1001,
            1002,
            1003
        ],
        "logoUrl": "https://beersboss.com/assets/logos/Fosters.jpg",
        "wikiUrl": "https://en.wikipedia.org/wiki/Foster%27s_Lager",
        "officialUrl": "https://www.fostersbeer.com/"
    },
    {
        "id": 82,
        "name": "Carling",
        "owners": [
            1002
        ],
        "logoUrl": "https://beersboss.com/assets/logos/Carling.png",
        "wikiUrl": "https://en.wikipedia.org/wiki/Carling_Brewery",
        "officialUrl": "https://www.carling.com/age-gate"
    },
    {
        "id": 83,
        "name": "Colorado Native",
        "owners": [
            1002
        ],
        "logoUrl": "https://beersboss.com/assets/logos/Colorado_Native.png",
        "wikiUrl": "https://en.wikipedia.org/wiki/Colorado_Native_Lager",
        "officialUrl": "https://www.coloradonative.com/"
    },
    {
        "id": 84,
        "name": "Creemore Springs",
        "owners": [
            1002
        ],
        "logoUrl": "https://beersboss.com/assets/logos/Creemore_Springs.png",
        "wikiUrl": "https://en.wikipedia.org/wiki/Creemore_Springs",
        "officialUrl": "https://www.creemoresprings.com/"
    },
    {
        "id": 85,
        "name": "Cusque\u00f1a",
        "owners": [
            1002
        ],
        "logoUrl": "https://beersboss.com/assets/logos/Cusque%C3%B1a.jpg",
        "wikiUrl": "https://en.wikipedia.org/wiki/Backus_and_Johnston_Brewery#Brands",
        "officialUrl": "https://english1.cusquenaglobal.com/"
    },
    {
        "id": 86,
        "name": "Killian's",
        "owners": [
            1002
        ],
        "logoUrl": "https://beersboss.com/assets/logos/Killian%27s.jpg",
        "wikiUrl": "https://en.wikipedia.org/wiki/Killian%27s",
        "officialUrl": "https://www.georgekillians.com/"
    },
    {
        "id": 87,
        "name": "Granville Island Brewing Company",
        "owners": [
            1002
        ],
        "logoUrl": "https://beersboss.com/assets/logos/Granville_Island_Brewing_Company.png",
        "wikiUrl": "https://en.wikipedia.org/wiki/Granville_Island_Brewing",
        "officialUrl": "https://www.gib.ca/"
    },
    {
        "id": 88,
        "name": "Hamm's",
        "owners": [
            1002
        ],
        "logoUrl": "https://beersboss.com/assets/logos/Hamm%27s.png",
        "wikiUrl": "https://en.wikipedia.org/wiki/Hamm%27s_Brewery",
        "officialUrl": "https://www.hamms.com/"
    },
    {
        "id": 89,
        "name": "Henry Weinhard's",
        "owners": [
            1002
        ],
        "logoUrl": "https://beersboss.com/assets/logos/Henry_Weinhard%27s.png",
        "wikiUrl": "https://en.wikipedia.org/wiki/Henry_Weinhard%27s",
        "officialUrl": "https://www.henryweinhards.com/"
    },
    {
        "id": 90,
        "name": "Herman Joseph's Private Reserve",
        "owners": [
            1002
        ],
        "logoUrl": "https://beersboss.com/assets/logos/Herman_Joseph%27s_Private_Reserve.jpg",
        "wikiUrl": "https://en.wikipedia.org/wiki/AC_Golden_Brewing_Company",
        "officialUrl": "https://www.hermanjosephs.com/"
    },
    {
        "id": 91,
        "name": "Keystone",
        "owners": [
            1002
        ],
        "logoUrl": "https://beersboss.com/assets/logos/Keystone.jpg",
        "wikiUrl": "https://en.wikipedia.org/wiki/Keystone_(beer_brand)",
        "officialUrl": "https://www.keystonelight.com/"
    },
    {
        "id": 92,
        "name": "Laurentide",
        "owners": [
            1002
        ],
        "logoUrl": "https://beersboss.com/assets/logos/Laurentide.png",
        "wikiUrl": "https://en.wikipedia.org/wiki/List_of_Molson_Coors_brands",
        "officialUrl": "https://www.laurentidebeer.com/"
    },
    {
        "id": 93,
        "name": "Leinenkugel's",
        "owners": [
            1002
        ],
        "logoUrl": "https://beersboss.com/assets/logos/Leinenkugel%27s.png",
        "wikiUrl": "https://en.wikipedia.org/wiki/Jacob_Leinenkugel_Brewing_Company",
        "officialUrl": "https://www.leinie.com/"
    },
    {
        "id": 94,
        "name": "Icehouse",
        "owners": [
            1002
        ],
        "logoUrl": "https://beersboss.com/assets/logos/Icehouse.png",
        "wikiUrl": "https://en.wikipedia.org/wiki/List_of_Molson_Coors_brands",
        "officialUrl": "https://www.icehouse.com/"
    },
    {
        "id": 95,
        "name": "Mickey's",
        "owners": [
            1002
        ],
        "logoUrl": "https://beersboss.com/assets/logos/Mickey%27s.png",
        "wikiUrl": "https://en.wikipedia.org/wiki/Mickey%27s",
        "officialUrl": "https://www.mickeys.com"
    },
    {
        "id": 96,
        "name": "Milwaukee's Best",
        "owners": [
            1002
        ],
        "logoUrl": "https://beersboss.com/assets/logos/Milwaukee%27s_Best.png",
        "wikiUrl": "https://en.wikipedia.org/wiki/Milwaukee%27s_Best",
        "officialUrl": "https://www.milbest.com/"
    },
    {
        "id": 97,
        "name": "Olde English 800",
        "owners": [
            1002
        ],
        "logoUrl": "https://beersboss.com/assets/logos/Olde_English_800.jpg",
        "wikiUrl": "https://en.wikipedia.org/wiki/Olde_English_800"
    },
    {
        "id": 98,
        "name": "Steel Reserve",
        "owners": [
            1002
        ],
        "logoUrl": "https://beersboss.com/assets/logos/Steel_Reserve.jpg",
        "wikiUrl": "https://en.wikipedia.org/wiki/Steel_Reserve",
        "officialUrl": "https://www.steelreservealloyseries.com/"
    },
    {
        "id": 99,
        "name": "Molson Canadian",
        "owners": [
            1002
        ],
        "logoUrl": "https://beersboss.com/assets/logos/Molson_Canadian.png",
        "wikiUrl": "https://en.wikipedia.org/wiki/Molson_Canadian",
        "officialUrl": "https://www.molson.ca/"
    },
    {
        "id": 100,
        "name": "Old Style Pilsner",
        "owners": [
            1002
        ],
        "logoUrl": "https://beersboss.com/assets/logos/Old_Style_Pilsner.png",
        "wikiUrl": "https://en.wikipedia.org/wiki/Old_Style_Pilsner",
        "officialUrl": "http://www.oldstylepilsner.ca/"
    },
    {
        "id": 101,
        "name": "Terrapin Beer Company",
        "owners": [
            1002
        ],
        "logoUrl": "https://beersboss.com/assets/logos/Terrapin_Beer_Company.png",
        "wikiUrl": "https://en.wikipedia.org/wiki/Terrapin_Beer_Company",
        "officialUrl": "https://www.terrapinbeer.com/"
    },
    {
        "id": 102,
        "name": "Saint Archer Brewing",
        "owners": [
            1002
        ],
        "logoUrl": "https://beersboss.com/assets/logos/Saint_Archer_Brewing.png",
        "wikiUrl": "https://en.wikipedia.org/wiki/Saint_Archer_Brewing",
        "officialUrl": "https://www.saintarcherbrewery.com/"
    },
    {
        "id": 103,
        "name": "Old Milwaukee",
        "owners": [
            1009
        ],
        "logoUrl": "https://beersboss.com/assets/logos/Old_Milwaukee.png",
        "wikiUrl": "https://en.wikipedia.org/wiki/Old_Milwaukee",
        "officialUrl": "https://oldmilwaukee.com/"
    },
    {
        "id": 104,
        "name": "L\u00f6wenbr\u00e4u",
        "owners": [
            1000
        ],
        "logoUrl": "https://beersboss.com/assets/logos/L%C3%B6wenbr%C3%A4u.png",
        "wikiUrl": "https://en.wikipedia.org/wiki/L%C3%B6wenbr%C3%A4u_Brewery",
        "officialUrl": "https://loewenbraeu.de/"
    },
    {
        "id": 105,
        "name": "Sapporo",
        "owners": [
            1010
        ],
        "logoUrl": "https://beersboss.com/assets/logos/Sapporo.png",
        "wikiUrl": "https://en.wikipedia.org/wiki/Sapporo_Breweries",
        "officialUrl": "https://www.sapporoholdings.jp/"
    },
    {
        "id": 106,
        "name": "Sleeman",
        "owners": [
            1010
        ],
        "logoUrl": "https://beersboss.com/assets/logos/Sleeman.png",
        "wikiUrl": "https://en.wikipedia.org/wiki/Sleeman_Breweries",
        "officialUrl": "http://www.sleeman.com/"
    },
    {
        "id": 107,
        "name": "Anchor Brewing Company",
        "owners": [
            1010
        ],
        "logoUrl": "https://beersboss.com/assets/logos/Anchor_Brewing_Company.png",
        "wikiUrl": "https://en.wikipedia.org/wiki/Anchor_Brewing_Company",
        "officialUrl": "https://www.anchorbrewing.com/"
    },
    {
        "id": 108,
        "name": "Carlsberg",
        "owners": [
            1011
        ],
        "logoUrl": "https://beersboss.com/assets/logos/Carlsberg.png",
        "wikiUrl": "https://en.wikipedia.org/wiki/Carlsberg_Group#Carlsberg",
        "officialUrl": "https://www.carlsberg.com/"
    },
    {
        "id": 109,
        "name": "Kronenbourg 1664",
        "owners": [
            1011
        ],
        "logoUrl": "https://beersboss.com/assets/logos/Kronenbourg_1664.png",
        "wikiUrl": "https://en.wikipedia.org/wiki/1664_(beer)",
        "officialUrl": "https://www.1664blanc.com/"
    },
    {
        "id": 110,
        "name": "Grimbergen",
        "owners": [
            1011
        ],
        "logoUrl": "https://beersboss.com/assets/logos/Grimbergen.png",
        "wikiUrl": "https://en.wikipedia.org/wiki/Grimbergen_(beer)",
        "officialUrl": "https://www.grimbergenbeer.com/"
    },
    {
        "id": 111,
        "name": "Odell Brewing Company",
        "logoUrl": "https://beersboss.com/assets/logos/Odell_Brewing_Company.png",
        "wikiUrl": "https://en.wikipedia.org/wiki/Odell_Brewing_Company",
        "officialUrl": "https://www.odellbrewing.com/"
    },
    {
        "id": 112,
        "name": "Mammoth Brewing Company",
        "logoUrl": "https://beersboss.com/assets/logos/Mammoth_Brewing_Company.png",
        "wikiUrl": "https://en.wikipedia.org/wiki/Mammoth_Brewing_Company",
        "officialUrl": "https://mammothbrewingco.com/"
    },
    {
        "id": 113,
        "name": "Samuel Adams",
        "owners": [
            1012
        ],
        "logoUrl": "https://beersboss.com/assets/logos/Samuel_Adams.png",
        "wikiUrl": "https://en.wikipedia.org/wiki/Samuel_Adams_(beer)",
        "officialUrl": "https://www.samueladams.com/"
    },
    {
        "id": 114,
        "name": "Dogfish Head",
        "owners": [
            1012
        ],
        "logoUrl": "https://beersboss.com/assets/logos/Dogfish_Head.png",
        "wikiUrl": "https://en.wikipedia.org/wiki/Dogfish_Head_Brewery",
        "officialUrl": "https://en.wikipedia.org/wiki/Dogfish_Head_Brewery"
    },
    {
        "id": 115,
        "name": "Coney Island Brewing Co",
        "owners": [
            1012
        ],
        "logoUrl": "https://beersboss.com/assets/logos/Coney_Island_Brewing_Co.png",
        "wikiUrl": "https://en.wikipedia.org/wiki/Coney_Island_Brewing_Co.",
        "officialUrl": "https://coneyislandbeer.com/"
    },
    {
        "id": 116,
        "name": "Angel City Brewery",
        "owners": [
            1012
        ],
        "logoUrl": "https://beersboss.com/assets/logos/Angel_City_Brewery.png",
        "officialUrl": "https://angelcitybrewery.com/"
    },
    {
        "id": 117,
        "name": "Concrete Beach Brewery",
        "owners": [
            1012
        ],
        "logoUrl": "https://beersboss.com/assets/logos/Concrete_Beach_Brewery.png",
        "officialUrl": "https://drinkhavanalager.com/"
    },
    {
        "id": 118,
        "name": "Kirin Ichiban",
        "owners": [
            1013
        ],
        "logoUrl": "https://beersboss.com/assets/logos/Kirin_Ichiban.png",
        "wikiUrl": "https://en.wikipedia.org/wiki/Kirin_Company",
        "officialUrl": "http://www.kirinichiban.com/"
    },
    {
        "id": 119,
        "name": "Brooklyn Brewery",
        "owners": [
            1013
        ],
        "logoUrl": "https://beersboss.com/assets/logos/Brooklyn_Brewery.png",
        "wikiUrl": "https://en.wikipedia.org/wiki/Brooklyn_Brewery",
        "officialUrl": "https://brooklynbrewery.com/"
    },
    {
        "id": 120,
        "name": "New Belgium Brewing",
        "owners": [
            1013
        ],
        "logoUrl": "https://beersboss.com/assets/logos/New_Belgium_Brewing.png",
        "wikiUrl": "https://en.wikipedia.org/wiki/New_Belgium_Brewing_Company",
        "officialUrl": "https://www.newbelgium.com/"
    },
    {
        "id": 1000,
        "name": "Anheuser-Busch InBev",
        "logoUrl": "https://beersboss.com/assets/logos/Anheuser-Busch_InBev.png",
        "wikiUrl": "https://en.wikipedia.org/wiki/AB_InBev",
        "officialUrl": "https://www.ab-inbev.com/"
    },
    {
        "id": 1001,
        "name": "Heineken",
        "logoUrl": "https://beersboss.com/assets/logos/Heineken.png",
        "wikiUrl": "https://en.wikipedia.org/wiki/Heineken_N.V.",
        "officialUrl": "https://www.heineken.com/"
    },
    {
        "id": 1002,
        "name": "Molson Coors Beverage Company",
        "logoUrl": "https://beersboss.com/assets/logos/Molson_Coors_Beverage_Company.png",
        "wikiUrl": "https://en.wikipedia.org/wiki/Molson_Coors_Beverage_Company",
        "officialUrl": "https://www.molsoncoors.com/"
    },
    {
        "id": 1003,
        "name": "Asahi Group Holdings",
        "logoUrl": "https://beersboss.com/assets/logos/Asahi_Group_Holdings.png",
        "wikiUrl": "https://en.wikipedia.org/wiki/Asahi_Breweries",
        "officialUrl": "https://www.asahigroup-holdings.com/"
    },
    {
        "id": 1004,
        "name": "FIFCO",
        "logoUrl": "https://beersboss.com/assets/logos/FIFCO.png",
        "wikiUrl": "https://en.wikipedia.org/wiki/Florida_Ice_and_Farm_Company",
        "officialUrl": "https://www.fifco.com/"
    },
    {
        "id": 1005,
        "name": "Diageo",
        "logoUrl": "https://beersboss.com/assets/logos/Diageo.png",
        "wikiUrl": "https://en.wikipedia.org/wiki/Diageo",
        "officialUrl": "https://www.diageo.com/"
    },
    {
        "id": 1006,
        "name": "Darguner Brauerei",
        "wikiUrl": "https://de.wikipedia.org/wiki/Darguner_Brauerei",
        "officialUrl": "http://www.darguner.com/"
    },
    {
        "id": 1007,
        "name": "Gambrinus Company",
        "logoUrl": "https://beersboss.com/assets/logos/Gambrinus_Company.jpg",
        "officialUrl": "http://www.gambrinus.com/"
    },
    {
        "id": 1008,
        "name": "Constellation Brands",
        "logoUrl": "https://beersboss.com/assets/logos/Constellation_Brands.png",
        "wikiUrl": "https://en.wikipedia.org/wiki/Constellation_Brands",
        "officialUrl": "https://www.cbrands.com/"
    },
    {
        "id": 1009,
        "name": "TSG Consumer Partners",
        "logoUrl": "https://beersboss.com/assets/logos/TSG_Consumer_Partners.png",
        "wikiUrl": "https://en.wikipedia.org/wiki/TSG_Consumer_Partners",
        "officialUrl": "https://www.tsgconsumer.com/"
    },
    {
        "id": 1010,
        "name": "Sapporo Breweries",
        "logoUrl": "https://beersboss.com/assets/logos/Sapporo_Breweries.png",
        "wikiUrl": "https://en.wikipedia.org/wiki/Sapporo_Breweries",
        "officialUrl": "https://www.sapporoholdings.jp/"
    },
    {
        "id": 1011,
        "name": "Carlsberg Group",
        "logoUrl": "https://beersboss.com/assets/logos/Carlsberg_Group.png",
        "wikiUrl": "https://en.wikipedia.org/wiki/Carlsberg_Group",
        "officialUrl": "https://www.carlsberggroup.com/"
    },
    {
        "id": 1012,
        "name": "Boston Beer Company",
        "logoUrl": "https://beersboss.com/assets/logos/Boston_Beer_Company.jpg",
        "wikiUrl": "https://en.wikipedia.org/wiki/Boston_Beer_Company",
        "officialUrl": "http://www.bostonbeer.com/"
    },
    {
        "id": 1013,
        "name": "Kirin Holdings Company",
        "logoUrl": "https://beersboss.com/assets/logos/Kirin_Holdings_Company.jpg",
        "wikiUrl": "https://en.wikipedia.org/wiki/Kirin_Company",
        "officialUrl": "https://www.kirinholdings.co.jp/"
    },
    {
        "id": 2000,
        "name": "Cuauht\u00e9moc Moctezuma Brewery (Heineken M\u00e9xico)",
        "owners": [
            1001
        ],
        "groupMembers": [
            34,
            35,
            36,
            37,
            40,
            41
        ],
        "logoUrl": "https://beersboss.com/assets/logos/Cuauht%C3%A9moc_Moctezuma_Brewery_%28Heineken_M%C3%A9xico%29.png",
        "wikiUrl": "https://en.wikipedia.org/wiki/Cuauhtemoc_Moctezuma_Brewery",
        "officialUrl": "https://heinekenmexico.com/"
    },
    {
        "id": 2001,
        "name": "Coors Brewing Company",
        "owners": [
            1002
        ],
        "groupMembers": [
            13,
            15,
            83
        ],
        "logoUrl": "https://beersboss.com/assets/logos/Coors_Brewing_Company.png",
        "wikiUrl": "https://en.wikipedia.org/wiki/Coors_Brewing_Company",
        "officialUrl": "https://www.coors.com/"
    },
    {
        "id": 2002,
        "name": "Craft Brew Alliance",
        "owners": [
            1000
        ],
        "groupMembers": [
            10,
            12,
            21,
            28,
            30,
            32,
            33
        ],
        "logoUrl": "https://beersboss.com/assets/logos/Craft_Brew_Alliance.jpg",
        "wikiUrl": "https://en.wikipedia.org/wiki/Craft_Brew_Alliance",
        "officialUrl": "https://craftbrew.com/"
    },
    {
        "id": 2003,
        "name": "Heineken International",
        "owners": [
            1001
        ],
        "groupMembers": [
            6,
            42
        ],
        "logoUrl": "https://beersboss.com/assets/logos/Heineken_International.png",
        "wikiUrl": "https://en.wikipedia.org/wiki/Heineken_N.V.",
        "officialUrl": "https://www.theheinekencompany.com/"
    },
    {
        "id": 2004,
        "name": "Groupo Modelo",
        "owners": [
            1000
        ],
        "groupMembers": [
            51,
            52
        ],
        "logoUrl": "https://beersboss.com/assets/logos/Groupo_Modelo.jpg",
        "wikiUrl": "https://en.wikipedia.org/wiki/Grupo_Modelo",
        "officialUrl": "https://www.grupomodelo.com/"
    },
    {
        "id": 2005,
        "name": "Gambrinus Company",
        "owners": [
            1007
        ],
        "groupMembers": [
            56,
            57
        ],
        "logoUrl": "https://beersboss.com/assets/logos/Gambrinus_Company.jpg",
        "officialUrl": "http://www.gambrinus.com/"
    },
    {
        "id": 2006,
        "name": "Anheuser-Busch",
        "owners": [
            1000
        ],
        "groupMembers": [
            55,
            58,
            59,
            60,
            61,
            62
        ],
        "logoUrl": "https://beersboss.com/assets/logos/Anheuser-Busch.png",
        "wikiUrl": "https://en.wikipedia.org/wiki/Anheuser-Busch",
        "officialUrl": "https://www.anheuser-busch.com/"
    },
    {
        "id": 2007,
        "name": "InBev",
        "owners": [
            1000
        ],
        "groupMembers": [
            7,
            9,
            45
        ],
        "logoUrl": "https://beersboss.com/assets/logos/InBev.png",
        "wikiUrl": "https://en.wikipedia.org/wiki/InBev",
        "officialUrl": "https://www.ab-inbev.com/"
    },
    {
        "id": 2008,
        "name": "Pabst Brewing Company",
        "owners": [
            1009
        ],
        "groupMembers": [
            71,
            72
        ],
        "logoUrl": "https://beersboss.com/assets/logos/Pabst_Brewing_Company.jpg",
        "wikiUrl": "https://en.wikipedia.org/wiki/Pabst_Brewing_Company",
        "officialUrl": "https://pabst.com/"
    },
    {
        "id": 2009,
        "name": "Miller Brewing Company",
        "owners": [
            1002
        ],
        "groupMembers": [
            14,
            88,
            89,
            93,
            94,
            95,
            96
        ],
        "logoUrl": "https://beersboss.com/assets/logos/Miller_Brewing_Company.png",
        "wikiUrl": "https://en.wikipedia.org/wiki/Miller_Brewing_Company",
        "officialUrl": "https://www.millerhighlife.com/"
    },
    {
        "id": 2010,
        "name": "Molson",
        "owners": [
            1002
        ],
        "groupMembers": [
            82,
            92,
            99,
            100
        ],
        "logoUrl": "https://beersboss.com/assets/logos/Molson.png",
        "wikiUrl": "https://en.wikipedia.org/wiki/Molson_Brewery",
        "officialUrl": "https://www.molson.ca/"
    },
    {
        "id": 2011,
        "name": "Carlsberg Group",
        "owners": [
            1011
        ],
        "groupMembers": [
            108,
            109,
            110
        ],
        "logoUrl": "https://beersboss.com/assets/logos/Carlsberg_Group.png",
        "wikiUrl": "https://en.wikipedia.org/wiki/Carlsberg_Group",
        "officialUrl": "https://www.carlsberggroup.com/"
    },
    {
        "id": 2012,
        "name": "Boston Beer Subsidiary",
        "owners": [
            1012
        ],
        "groupMembers": [
            115,
            116
        ],
        "logoUrl": "https://beersboss.com/assets/logos/Boston_Beer_Subsidiary.jpg",
        "wikiUrl": "https://en.wikipedia.org/wiki/Boston_Beer_Company",
        "officialUrl": "http://www.bostonbeer.com/"
    }
]